-1=11111110+1=11111111
-1=11111111_11111111
-1=11111111_11111111_11111111
-1=11111111_11111111_11111111_11111111


-115=10001100+1=10001101
-115=11111111_10001101
-115=11111111_11111111_10001101
-115=11111111_11111111_11111111_10001101