a)
97:2=48|1
 48:2=24|0
  24:2=12|0
   12:2=6|0
    6:2=3|0
     3:2=1|1
      1
97=1100001(base 2)
1100001=1*2^6+ 1*2^5+ 1*2^0=64+32+1=97

b)
97:8=12|1
 12:8=1|4
  1

97=141(base 8)
141=1*8^2+4*8^1+1*8^0=64+32+1=97

c)
97:16=6|1
 6

97=61(base 16)
61=6*16^1+1*16^0=96+1=97